{
  "images" : [
    {
      "idiom" : "universal",
      "filename" : "NightClub copy.jpg",
      "scale" : "1x"
    },
    {
      "idiom" : "universal",
      "filename" : "NightClub@2x copy.jpg",
      "scale" : "2x"
    },
    {
      "idiom" : "universal",
      "filename" : "NightClub@3x copy.jpg",
      "scale" : "3x"
    }
  ],
  "info" : {
    "version" : 1,
    "author" : "xcode"
  }
}