{
  "$schema": "http://json-schema.org/draft-07/schema#",
  "title": "Case schema",
  "description": "The schema to create a case",
  "type": "object",
  "properties": {
    "program": {
      "type": "string",
      "minLength": 1
    },
    "preferredResponse": {
      "type": "string",
      "enum": ["Email", "Fax", "Letter", "Phone", "SMS"]
    },
    "callerId": {
      "type": "string",
      "pattern": "^[0-9+()*#\\-\\s]*$",
      "maxLength": 40
    },
    "currentPhone": {
      "type": "string",
      "pattern": "^(?!\\s)[0-9+()*#\\-\\s]*$",
      "minLength": 1,
      "maxLength": 40
    },
    "websitePassword": {
      "type": "string",
      "maxLength": 40
    },
    "contactMethod": {
      "type": "string",
      "enum": [
        "Chat",
        "Email",
        "Phone"
      ]
    },
    "contactSource": {
      "type": "string",
      "enum": [
        "Client Website",
        "Mobile App",
        "Website",
        "Website & Phone",
        "Website Self-Service"
      ]
    },
    "transmissionNumber": {
      "type": "string",
      "maxLength":20
    },
    "caseLevelIncident": {
      "type": "boolean"
    },
    "caseLevelSite": {
      "description":"ePC Site code associated with the client, a 3 letter code.",
      "type": "string",
      "maxLength": 40
    },
    "requestList": {
      "type": "array",
      "minItems":1,
      "items": {
        "type": "object",
        "properties": {
          "productCode": {
            "type": "string",
            "maxLength": 40
          },
          "requestType": {
            "type": "string",
            "minLength": 1
          },
          "3rdPartyCost": {
            "type": "string",
            "enum": [
              "No Cost Incurred",
              "Yes - Customer Pay",
              "Yes - Dispatch",
              "Yes - Intl.Sos Pay",
              "Yes - Reimbursement"
            ]
          },
          "serviceBooked": {
            "type": "string",
            "enum": [
              "Arrival",
              "Departure"
            ]
          },
          "serviceType": {
            "type": "string",
            "enum": [
              "AUTO",
              "CONCIERGE",
              "HOME",
              "MEDICAL",
              "TRAVEL"
            ]
          },
          "airportName": {
            "type": "string",
            "maxLength": 40
          },
          "airline": {
            "type": "string",
            "maxLength": 40
          },
          "situation": {
            "type": "string",
            "maxLength": 40
          },
          "priority": {
            "type": "string",
            "enum": [
              "Urgent",
              "Non Urgent"
            ]
          },
          "numberOfChildren": {
            "type": "integer",
            "minimum": 0
          },
          "numberOfSeniors": {
            "type": "integer",
            "minimum": 0
          },
          "requestCountry": {
            "type": "string",
            "enum": ["ABW", "AFG", "AGO", "AIA", "ALA", "ALB", "AND", "ANT", "ARE", "ARG", "ARM", "ASM", "ATA", "ATF", "ATG", "AUS", "AUT", "AZE", "BAT", "BDI", "BEL", "BEN", "BFA", "BGD", "BGR", "BHR", "BHS", "BIH", "BLR", "BLZ", "BMU", "BOL", "BRA", "BRB", "BRN", "BTN", "BVT", "BWA", "CAF", "CAN", "CCK", "CHE", "CHL", "CHN", "CIV", "CMR", "COD", "COG", "COK", "COL", "COM", "CPV", "CRI", "CUB", "CXR", "CYM", "CYP", "CZE", "DEU", "DJI", "DMA", "DNK", "DOM", "DZA", "ECU", "EGY", "ERI", "ESH", "ESP", "EST", "ETH", "FIN", "FJI", "FLK", "FRA", "FRO", "FSM", "FXX", "GAB", "GBR", "GEO", "GHA", "GIB", "GIN", "GLP", "GMB", "GNB", "GNQ", "GRC", "GRD", "GRL", "GRN", "GTM", "GUF", "GUM", "GUY", "HKG", "HMD", "HND", "HRV", "HTI", "HUN", "IDN", "IND", "IOT", "IRL", "IRN", "IRQ", "ISL", "ISR", "ITA", "JAM", "JER", "JOR", "JPN", "KAZ", "KEN", "KER", "KGZ", "KHM", "KIR", "KNA", "KOR", "KSV", "KWT", "LAO", "LBN", "LBR", "LBY", "LCA", "LIE", "LKA", "LSO", "LTU", "LUX", "LVA", "MAC", "MAR", "MAT", "MCO", "MDA", "MDG", "MDV", "MEX", "MHL", "MID", "MKD", "MLI", "MLT", "MMR", "MNE", "MNG", "MNP", "MOZ", "MRT", "MSR", "MTQ", "MUS", "MWI", "MYS", "MYT", "NAM", "NCL", "NER", "NFK", "NGA", "NIC", "NIU", "NLD", "NOR", "NPL", "NRU", "NZL", "OIW", "OMN", "PAK", "PAN", "PCN", "PER", "PHL", "PLW", "PNG", "POL", "PRI", "PRK", "PRT", "PRY", "PSE", "PYF", "QAT", "RCR", "REU", "ROM", "RUS", "RWA", "SAU", "SBT", "SDN", "SEN", "SGP", "SGS", "SHN", "SJM", "SLB", "SLE", "SLV", "SMR", "SOM", "SPM", "SRB", "STP", "SUR", "SVK", "SVN", "SWE", "SWZ", "SYC", "SYR", "TCA", "TCD", "TGO", "THA", "TJK", "TKL", "TKM", "TMP", "TON", "TTO", "TUN", "TUR", "TUV", "TWN", "TZA", "UGA", "UKR", "UMI", "URY", "USA", "UZB", "VAT", "VCT", "VEN", "VGB", "VIR", "VNM", "VUT", "WLF", "WSM", "XIM", "YEM", "YUG", "ZAF", "ZAR", "ZMB", "ZWE"]
          },
          "flightNumber": {
            "type": "string",
            "maxLength": 40
          },
          "arrivalOrDepartureTime": {
            "type": "string",
            "format": "date-time"
          },
          "otherCity": {
            "type": "string",
            "maxLength": 40
          },
          "requestCity": {
            "type": "string",
            "maxLength": 40
          },
          "requestStateOrProvince": {
            "type": "string",
            "maxLength": 40
          },
          "requestOtherCity": {
            "type": "string",
            "maxLength": 40
          },
          "numberOfBags": {
            "type": "integer",
            "minimum": 1,
            "maximum": 10
          },
          "reservationName": {
            "type": "string",
            "maxLength": 40
          },
          "requestStartDateTime": {
            "type": "string",
            "format": "date-time",
            "maxLength": 40
          },
          "numberOfAdults": {
            "type": "integer",
            "minimum": 0
          },
          "serviceAddress1": {
            "type": "string",
            "maxLength": 40
          },
          "amount": {
            "type": "number",
            "minimum": 0
          },
          "fulfillmentMethod": {
            "type": "string",
            "enum": [
              "FIRST CONTACT RESOLUTION",
              "ADDITIONAL CONTACTS TO RESOLVE REQUEST"
            ]
          },
          "vendor": {
            "type": "string",
            "maxLength": 40
          },
          "carClassPreference": {
            "type": "string",
            "enum": [
              "Compact",
              "Convertible",
              "Economy",
              "Full Size",
              "Luxury",
              "Luxury Van",
              "Midsize",
              "Premium",
              "Sedan",
              "Standard",
              "Stretch",
              "Suv",
              "Suv Limo",
              "Van"
            ]
          },
          "eventName": {
            "type": "string",
            "maxLength": 40
          },
          "frequentFlyerGuestNumber": {
            "type": "string",
            "maxLength": 40
          },
          "premiumOrFaceValue": {
            "type": "string",
            "enum": [
              "FACE VALUE",
              "PREMIUM"
            ]
          },
          "popularVendor": {
            "type": "string",
            "maxLength": 40
          },
          "seatingPreference": {
            "type": "string",
            "maxLength": 40
          },
          "vendorEmail": {
            "type": "string",
            "format": "email",
            "maxLength": 40
          },
          "iataProvided": {
            "type": "boolean"
          },
          "transactionCurrency": {
            "type": "string",
            "enum": [
              "AED", "AMD", "AON", "ARS", "AUD", "AZN", "BBD", "BDT", "BGN", "BHD", "BMD", "BND", "BOB", "BRL", "BSD", "BWP", "BYR", "BZD", "CAD", "CHF", "CLP", "CNY", "COP", "CRC", "CZK", "DKK", "DOP", "DZD", "EEK", "EGP", "ETB", "EUR", "FJD", "GBP", "GHC", "GTQ", "HKD", "HNL", "HRK", "HTG", "HUF", "IDR", "ILS", "INR", "ISK", "JMD", "JOD", "JPY", "KES", "KRW", "KWD", "KYD", "KZT", "LBP", "LKR", "LTL", "LVL", "LYD", "MAD", "MGF", "MNT", "MOP", "MUR", "MVR", "MWK", "MXN", "MYR", "MZM", "NGN", "NIO", "NOK", "NPR", "NZD", "OMR", "PEN", "PGK", "PHP", "PKR", "PLN", "PYG", "QAR", "RON", "RSD", "RUB", "SAR", "SBD", "SCR", "SEK", "SGD", "SRD", "SYP", "THB", "TND", "TOP", "TRY", "TTD", "TWD", "TZS", "UAH", "USD", "UYU", "VEF", "VND", "VUV", "WST", "XOF", "XPF", "YER", "ZAR", "ZWD"
            ]
          },
          "reportingAmount": {
            "type": "number"
          },
          "reportingCurrency": {
            "type": "string",
            "enum": [
              "AED", "AMD", "AON", "ARS", "AUD", "AZN", "BBD", "BDT", "BGN", "BHD", "BMD", "BND", "BOB", "BRL", "BSD", "BWP", "BYR", "BZD", "CAD", "CHF", "CLP", "CNY", "COP", "CRC", "CZK", "DKK", "DOP", "DZD", "EEK", "EGP", "ETB", "EUR", "FJD", "GBP", "GHC", "GTQ", "HKD", "HNL", "HRK", "HTG", "HUF", "IDR", "ILS", "INR", "ISK", "JMD", "JOD", "JPY", "KES", "KRW", "KWD", "KYD", "KZT", "LBP", "LKR", "LTL", "LVL", "LYD", "MAD", "MGF", "MNT", "MOP", "MUR", "MVR", "MWK", "MXN", "MYR", "MZM", "NGN", "NIO", "NOK", "NPR", "NZD", "OMR", "PEN", "PGK", "PHP", "PKR", "PLN", "PYG", "QAR", "RON", "RSD", "RUB", "SAR", "SBD", "SCR", "SEK", "SGD", "SRD", "SYP", "THB", "TND", "TOP", "TRY", "TTD", "TWD", "TZS", "UAH", "USD", "UYU", "VEF", "VND", "VUV", "WST", "XOF", "XPF", "YER", "ZAR", "ZWD"
            ]
          },
          "promotion": {
            "type": "string",
            "maxLength": 40
          },
          "cardUsed": {
            "type": "string",
            "maxLength": 40
          },
          "conciergeOwner": {
            "type": "string",
            "maxLength": 40
          },
          "cause": {
            "type": "string",
            "enum": [
              "Concierge Caused",
              "Constructive Feedback",
              "Positive Feedback",
              "Service Related Issue",
              "Vendor Caused"
            ]
          },
          "securityCode": {
            "type": "string",
            "maxLength": 12
          },
          "cost": {
          "type": "number",
          "minimum": 0
          },
          "uniqueRequest": {
            "type": "boolean"
          },
          "globalRequestNumber": {
            "type": "string",
            "maxLength": 40
          },
          "requestDetails": {
            "type": "string",
            "maxLength": 2000
          },
          "clientSpecificRequest": {
            "type": "string"
          },
          "smokingOrNonSmoking": {
            "type": "string",
            "maxLength": 40
          },
          "requestLevelSite": {
            "description":"ePC Site code associated with the client, a 3 letter code.",
            "type": "string",
            "maxLength": 40
          }
        },
        "required": [
          "requestType",
          "serviceType"
        ]
      }
    },
    "profile": {
      "type": "object",
      "properties": {
        "salutation": {
          "type": "string",
          "enum": ["Captain", "Doctor", "Dr. (Miss)", "Dr. (Mr)", "Dr. (Mrs)", "Dr. (Ms)", "Fraulein", "Herr", "Madam", "Master", "Miss", "Mr.", "Mrs.", "Ms", "Professor"]
        },
        "fullName": {
          "type": "string",
          "maxLength": 255
        },
        "firstName": {
          "type": "string",
          "pattern": "^(?!\\s)(.*?)+",
          "minLength": 1,
          "maxLength": 25
        },
        "middleName": {
          "type": "string",
          "maxLength": 255
        },
        "lastName": {
          "type": "string",
          "pattern": "^(?!\\s)(.*?)+",
          "minLength": 1,
          "maxLength": 25
        },
        "displayName": {
          "type": "string",
          "maxLength": 255
        },
        "aliasName": {
          "type": "string",
          "maxLength": 255
        },
        "prefix": {
          "type": "string",
          "maxLength": 40
        },
        "suffix": {
          "type": "string",
          "maxLength": 5
        },
        "companyName": {
          "type": "string",
          "maxLength": 40
        },
        "jobTitle": {
          "type": "string",
          "maxLength": 40
        },
        "maritalStatus": {
          "type": "string",
          "enum": ["Divorced", "Married", "Separated", "Single", "Unknown", "Unmarried", "Widowed"]
        },
        "dateOfBirth": {
          "type": "string",
          "format": "date-time"
        },
        "residentCountry": {
          "type": "string",
          "enum": ["ABW", "AFG", "AGO", "AIA", "ALA", "ALB", "AND", "ANT", "ARE", "ARG", "ARM", "ASM", "ATA", "ATF", "ATG", "AUS", "AUT", "AZE", "BAT", "BDI", "BEL", "BEN", "BFA", "BGD", "BGR", "BHR", "BHS", "BIH", "BLR", "BLZ", "BMU", "BOL", "BRA", "BRB", "BRN", "BTN", "BVT", "BWA", "CAF", "CAN", "CCK", "CHE", "CHL", "CHN", "CIV", "CMR", "COD", "COG", "COK", "COL", "COM", "CPV", "CRI", "CUB", "CXR", "CYM", "CYP", "CZE", "DEU", "DJI", "DMA", "DNK", "DOM", "DZA", "ECU", "EGY", "ERI", "ESH", "ESP", "EST", "ETH", "FIN", "FJI", "FLK", "FRA", "FRO", "FSM", "FXX", "GAB", "GBR", "GEO", "GHA", "GIB", "GIN", "GLP", "GMB", "GNB", "GNQ", "GRC", "GRD", "GRL", "GRN", "GTM", "GUF", "GUM", "GUY", "HKG", "HMD", "HND", "HRV", "HTI", "HUN", "IDN", "IND", "IOT", "IRL", "IRN", "IRQ", "ISL", "ISR", "ITA", "JAM", "JER", "JOR", "JPN", "KAZ", "KEN", "KER", "KGZ", "KHM", "KIR", "KNA", "KOR", "KSV", "KWT", "LAO", "LBN", "LBR", "LBY", "LCA", "LIE", "LKA", "LSO", "LTU", "LUX", "LVA", "MAC", "MAR", "MAT", "MCO", "MDA", "MDG", "MDV", "MEX", "MHL", "MID", "MKD", "MLI", "MLT", "MMR", "MNE", "MNG", "MNP", "MOZ", "MRT", "MSR", "MTQ", "MUS", "MWI", "MYS", "MYT", "NAM", "NCL", "NER", "NFK", "NGA", "NIC", "NIU", "NLD", "NOR", "NPL", "NRU", "NZL", "OIW", "OMN", "PAK", "PAN", "PCN", "PER", "PHL", "PLW", "PNG", "POL", "PRI", "PRK", "PRT", "PRY", "PSE", "PYF", "QAT", "RCR", "REU", "ROM", "RUS", "RWA", "SAU", "SBT", "SDN", "SEN", "SGP", "SGS", "SHN", "SJM", "SLB", "SLE", "SLV", "SMR", "SOM", "SPM", "SRB", "STP", "SUR", "SVK", "SVN", "SWE", "SWZ", "SYC", "SYR", "TCA", "TCD", "TGO", "THA", "TJK", "TKL", "TKM", "TMP", "TON", "TTO", "TUN", "TUR", "TUV", "TWN", "TZA", "UGA", "UKR", "UMI", "URY", "USA", "UZB", "VAT", "VCT", "VEN", "VGB", "VIR", "VNM", "VUT", "WLF", "WSM", "XIM", "YEM", "YUG", "ZAF", "ZAR", "ZMB", "ZWE"]
        },
        "homeCountry": {
          "type": "string",
          "enum": ["ABW", "AFG", "AGO", "AIA", "ALA", "ALB", "AND", "ANT", "ARE", "ARG", "ARM", "ASM", "ATA", "ATF", "ATG", "AUS", "AUT", "AZE", "BAT", "BDI", "BEL", "BEN", "BFA", "BGD", "BGR", "BHR", "BHS", "BIH", "BLR", "BLZ", "BMU", "BOL", "BRA", "BRB", "BRN", "BTN", "BVT", "BWA", "CAF", "CAN", "CCK", "CHE", "CHL", "CHN", "CIV", "CMR", "COD", "COG", "COK", "COL", "COM", "CPV", "CRI", "CUB", "CXR", "CYM", "CYP", "CZE", "DEU", "DJI", "DMA", "DNK", "DOM", "DZA", "ECU", "EGY", "ERI", "ESH", "ESP", "EST", "ETH", "FIN", "FJI", "FLK", "FRA", "FRO", "FSM", "FXX", "GAB", "GBR", "GEO", "GHA", "GIB", "GIN", "GLP", "GMB", "GNB", "GNQ", "GRC", "GRD", "GRL", "GRN", "GTM", "GUF", "GUM", "GUY", "HKG", "HMD", "HND", "HRV", "HTI", "HUN", "IDN", "IND", "IOT", "IRL", "IRN", "IRQ", "ISL", "ISR", "ITA", "JAM", "JER", "JOR", "JPN", "KAZ", "KEN", "KER", "KGZ", "KHM", "KIR", "KNA", "KOR", "KSV", "KWT", "LAO", "LBN", "LBR", "LBY", "LCA", "LIE", "LKA", "LSO", "LTU", "LUX", "LVA", "MAC", "MAR", "MAT", "MCO", "MDA", "MDG", "MDV", "MEX", "MHL", "MID", "MKD", "MLI", "MLT", "MMR", "MNE", "MNG", "MNP", "MOZ", "MRT", "MSR", "MTQ", "MUS", "MWI", "MYS", "MYT", "NAM", "NCL", "NER", "NFK", "NGA", "NIC", "NIU", "NLD", "NOR", "NPL", "NRU", "NZL", "OIW", "OMN", "PAK", "PAN", "PCN", "PER", "PHL", "PLW", "PNG", "POL", "PRI", "PRK", "PRT", "PRY", "PSE", "PYF", "QAT", "RCR", "REU", "ROM", "RUS", "RWA", "SAU", "SBT", "SDN", "SEN", "SGP", "SGS", "SHN", "SJM", "SLB", "SLE", "SLV", "SMR", "SOM", "SPM", "SRB", "STP", "SUR", "SVK", "SVN", "SWE", "SWZ", "SYC", "SYR", "TCA", "TCD", "TGO", "THA", "TJK", "TKL", "TKM", "TMP", "TON", "TTO", "TUN", "TUR", "TUV", "TWN", "TZA", "UGA", "UKR", "UMI", "URY", "USA", "UZB", "VAT", "VCT", "VEN", "VGB", "VIR", "VNM", "VUT", "WLF", "WSM", "XIM", "YEM", "YUG", "ZAF", "ZAR", "ZMB", "ZWE"]
        },
        "nationality": {
          "type": "string",
          "enum": ["Afghan", "Albanian", "Algerian", "American", "American Samoan", "Andorran", "Angolan", "Anguillan", "Antiguan", "Argentine", "Armenian", "Aruban", "Australian", "Austrian", "Azerbaijani", "Bahaman", "Bahraini", "Bangladeshi", "Barbadian", "Batswana", "Belarusian", "Belgian", "Belizean", "Beninese", "Bhutanese", "Bolivian", "Bosnian", "Brazilian", "British", "Bruneian", "Bulgarian", "Burkinabe", "Burmese", "Burundian", "Cambodian", "Cameroonian", "Canadian", "Cape Verdean", "Central African", "Chad", "Chilean", "Chinese", "Colombian", "Comoran", "Congolese", "Cook Islander", "Costa Rican", "Croatian", "Cuban", "Cypriot", "Czech", "Danish", "Djiboutian", "Dominican", "Dutch", "Ecuador", "Egyptian", "Emirati", "Equatoguinean", "Eritrean", "Estonian", "Ethiopian", "Fijian", "Filipino", "Finnish", "French", "Gabonese", "Gambian", "Georgian", "German", "Ghanian", "Greek", "Grenadian", "Guamanian", "Guatemalan", "Guinean", "Guyanese", "Haitian", "Honduran", "Hong Konger", "Hungarian", "Icelandic", "Indian", "Indonesian", "Iranian", "Iraqi", "Irish", "Israeli", "Italian", "Ivoirian", "Jamaican", "Japanese", "Jordanian", "Kazakh", "Kenyan", "Kirghiz", "Kittitian", "Kuwaiti", "Kyrgyzstani", "Laotian", "Latvian", "Lebanese", "Liberian", "Libyan", "Liechtensteiner", "Lithuanian", "Luxembourgish", "Macedonian", "Madagascan", "Malawian", "Malaysian", "Maldivian", "Malian", "Maltese", "Marshallese", "Mauritanian", "Mauritius", "Mexican", "Micronesian", "Moldovan", "Monegasque", "Mongolian", "Moroccan", "Mosotho", "Mozambican", "Namibian", "Nauruan", "Nepalese", "Nevisian", "New Caledonian", "New Zealander", "Nicaraguan", "Nigerian", "Nigerien", "Niuean", "Ni-Vanuatu", "North Korean", "Norwegian", "Omani", "Pakistani", "Palauan", "Palestinian", "Panamanian", "Papua New Guinean", "Paraguayan", "Peruvian", "Polish", "Portuguese", "Puerto Rican", "Qatari", "Romanian", "Russian", "Rwandan", "Sahrawi", "Saint Lucian", "Salvadoran", "Sammarinese", "Samoan", "Sao Tomean", "Saudi Arabian", "Senegalese", "Serb&amp;Montenegrin", "Seychellois", "Sierra Leonean", "Singaporean", "Singaporean PR", "Slovakian", "Slovenian", "Somalian", "South African", "South Korean", "Spanish", "Sri Lankan", "Sudanese", "Surinamese", "Swazi", "Swedish", "Swiss", "Syrian", "Tadzhik", "Taiwanese", "Tanzanian", "Thai", "Timorese", "Togolese", "Tongan", "Trinidadian", "Tunisian", "Turkish", "Turkmen", "Tuvaluan", "Ugandan", "Ukrainian", "Uruguayan", "Uzbek", "Venezuelan", "Vietnamese", "Vincentian", "Yemeni", "Zairean", "Zambian", "Zimbabwean"]
        },
        "signature": {
          "type": "string",
          "maxLength": 255
        },
        "profilePic": {
          "type": "string",
          "maxLength": 255
        },
        "disabilityStatus": {
          "type": "string",
          "maxLength": 20
        },
        "placeOfBirth": {
          "type": "string",
          "maxLength": 100
        },
        "employmentStatus": {
          "type": "string",
          "enum": ["Employed", "Retired", "Unemployed"]
        },
        "instructions": {
          "type": "string",
          "maxLength": 255
        },
        "currencyCode": {
          "type": "string",
          "enum": [
            "AED", "AMD", "AON", "ARS", "AUD", "AZN", "BBD", "BDT", "BGN", "BHD", "BMD", "BND", "BOB", "BRL", "BSD", "BWP", "BYR", "BZD", "CAD", "CHF", "CLP", "CNY", "COP", "CRC", "CZK", "DKK", "DOP", "DZD", "EEK", "EGP", "ETB", "EUR", "FJD", "GBP", "GHC", "GTQ", "HKD", "HNL", "HRK", "HTG", "HUF", "IDR", "ILS", "INR", "ISK", "JMD", "JOD", "JPY", "KES", "KRW", "KWD", "KYD", "KZT", "LBP", "LKR", "LTL", "LVL", "LYD", "MAD", "MGF", "MNT", "MOP", "MUR", "MVR", "MWK", "MXN", "MYR", "MZM", "NGN", "NIO", "NOK", "NPR", "NZD", "OMR", "PEN", "PGK", "PHP", "PKR", "PLN", "PYG", "QAR", "RON", "RSD", "RUB", "SAR", "SBD", "SCR", "SEK", "SGD", "SRD", "SYP", "THB", "TND", "TOP", "TRY", "TTD", "TWD", "TZS", "UAH", "USD", "UYU", "VEF", "VND", "VUV", "WST", "XOF", "XPF", "YER", "ZAR", "ZWD"
          ]
        },
        "vip": {
          "type": "string",
          "enum": ["NA", "Y", "N"]
        },
        "gender": {
          "type": "string",
          "enum": ["Male", "Female", "Unknown"]
        },
        "reportingCity": {
          "type": "string",
          "maxLength": 40
        },
        "intlPostalCode": {
          "type": "string",
          "maxLength": 40
        },
        "partnerName": {
          "type": "string",
          "maxLength": 40
        },
        "paName": {
          "type": "string",
          "maxLength": 40
        },
        "nickname": {
          "type": "string",
          "maxLength": 40
        },
        "homeAirportCode": {
          "type": "string",
          "maxLength": 3
        },
        "partnerBirthday": {
          "type": "string",
          "format":"date-time"
        },
        "anniversary": {
          "type": "string",
          "format":"date-time"
        },
        "passportName": {
          "type": "string",
          "maxLength": 40
        },
        "citizenship": {
          "type": "string",
          "enum": ["Afghan", "Albanian", "Algerian", "American", "American Samoan", "Andorran", "Angolan", "Anguillan", "Antiguan", "Argentine", "Armenian", "Aruban", "Australian", "Austrian", "Azerbaijani", "Bahaman", "Bahraini", "Bangladeshi", "Barbadian", "Batswana", "Belarusian", "Belgian", "Belizean", "Beninese", "Bhutanese", "Bolivian", "Bosnian", "Brazilian", "British", "Bruneian", "Bulgarian", "Burkinabe", "Burmese", "Burundian", "Cambodian", "Cameroonian", "Canadian", "Cape Verdean", "Central African", "Chad", "Chilean", "Chinese", "Colombian", "Comoran", "Congolese", "Cook Islander", "Costa Rican", "Croatian", "Cuban", "Cypriot", "Czech", "Danish", "Djiboutian", "Dominican", "Dutch", "Ecuador", "Egyptian", "Emirati", "Equatoguinean", "Eritrean", "Estonian", "Ethiopian", "Fijian", "Filipino", "Finnish", "French", "Gabonese", "Gambian", "Georgian", "German", "Ghanian", "Greek", "Grenadian", "Guamanian", "Guatemalan", "Guinean", "Guyanese", "Haitian", "Honduran", "Hong Konger", "Hungarian", "Icelandic", "Indian", "Indonesian", "Iranian", "Iraqi", "Irish", "Israeli", "Italian", "Ivoirian", "Jamaican", "Japanese", "Jordanian", "Kazakh", "Kenyan", "Kirghiz", "Kittitian", "Kuwaiti", "Kyrgyzstani", "Laotian", "Latvian", "Lebanese", "Liberian", "Libyan", "Liechtensteiner", "Lithuanian", "Luxembourgish", "Macedonian", "Madagascan", "Malawian", "Malaysian", "Maldivian", "Malian", "Maltese", "Marshallese", "Mauritanian", "Mauritius", "Mexican", "Micronesian", "Moldovan", "Monegasque", "Mongolian", "Moroccan", "Mosotho", "Mozambican", "Namibian", "Nauruan", "Nepalese", "Nevisian", "New Caledonian", "New Zealander", "Nicaraguan", "Nigerian", "Nigerien", "Niuean", "Ni-Vanuatu", "North Korean", "Norwegian", "Omani", "Pakistani", "Palauan", "Palestinian", "Panamanian", "Papua New Guinean", "Paraguayan", "Peruvian", "Polish", "Portuguese", "Puerto Rican", "Qatari", "Romanian", "Russian", "Rwandan", "Sahrawi", "Saint Lucian", "Salvadoran", "Sammarinese", "Samoan", "Sao Tomean", "Saudi Arabian", "Senegalese", "Serb&amp;Montenegrin", "Seychellois", "Sierra Leonean", "Singaporean", "Singaporean PR", "Slovakian", "Slovenian", "Somalian", "South African", "South Korean", "Spanish", "Sri Lankan", "Sudanese", "Surinamese", "Swazi", "Swedish", "Swiss", "Syrian", "Tadzhik", "Taiwanese", "Tanzanian", "Thai", "Timorese", "Togolese", "Tongan", "Trinidadian", "Tunisian", "Turkish", "Turkmen", "Tuvaluan", "Ugandan", "Ukrainian", "Uruguayan", "Uzbek", "Venezuelan", "Vietnamese", "Vincentian", "Yemeni", "Zairean", "Zambian", "Zimbabwean"]
        },
        "passportNumber": {
          "type": "string",
          "pattern": "^[a-zA-Z0-9]*$",
          "maxLength": 40
        },
        "dateIssued": {
          "type": "string",
          "format": "date-time"
        },
        "expirationDate": {
          "type": "string",
          "format": "date-time"
        },
        "placeIssued": {
          "type": "string",
          "maxLength": 40
        },
        "association": {
          "type": "string",
          "enum": [
            "OTHER",
            "RECIPIENT",
            "RELATIVE",
            "SELF"
          ]
        },
        "handicap": {
          "type": "string",
          "maxLength": 40
        },
        "memberRefNumber": {
          "type": "string",
          "maxLength": 40
        },
        "websiteCustomerLogin": {
          "type": "string",
          "maxLength": 40
        },
        "incident": {
          "type": "boolean"
        },
        "allergies": {
          "type": "string",
          "maxLength": 40
        },
        "otherTravelNotes": {
          "type": "string",
          "maxLength": 40
        },
        "relationshipManager": {
          "type": "string",
          "maxLength": 40
        },
        "locations": {
          "type": "array",
          "items": {
            "type": "object",
            "properties": {
              "locationId": {
                "type": "string",
                "maxLength": 20
              },
              "additionalInformation": {
                "type": "string",
                "maxLength": 100
              },
              "locationType": {
                "type": "string",
                "enum": ["Accommodation", "Assistant Center", "Billing Address", "Coordinates", "Current Address", "Home Address", "Mailing Address", "Mining", "Office", "Original", "Others", "Primary Contact", "Region", "Reporting", "Secondary", "Selling Office", "Service Location", "Shipping Address", "Site", "Temporary Address"]
              },
              "address": {
                "type": "object",
                "properties": {
                  "addressLine1": {
                    "type": "string",
                    "maxLength": 40
                  },
                  "addressLine2": {
                    "type": "string",
                    "maxLength": 40
                  },
                  "addressLine3": {
                    "type": "string",
                    "maxLength": 40
                  },
                  "addressLine4": {
                    "type": "string",
                    "maxLength": 40
                  },
                  "addressLine5": {
                    "type": "string",
                    "maxLength": 40
                  },
                  "city": {
                    "type": "string",
                    "minLength": 1,
                    "maxLength": 30
                  },
                  "stateProvince": {
                    "type": "string",
                    "enum": ["ACT", "NSW", "NT ", "QLD", "SA ", "TAS", "VIC", "WA ", "AB ", "BC ", "MB ", "NB ", "NF ", "NS ", "NU ", "ON ", "PE ", "QC ", "SK ", "YT ", "AN ", "BE ", "CQ ", "FU ", "GA ", "GG ", "GU ", "GZ ", "HA ", "HE ", "HG ", "HN ", "HU ", "HZ ", "IM ", "JI ", "JL ", "JN ", "LI ", "NI ", "QI ", "SH ", "SI ", "SN ", "SX ", "TA ", "TI ", "XI ", "YU ", "ZH ", "AE ", "AK ", "AL ", "AP ", "AR ", "AZ ", "CA ", "CO ", "CT ", "DC ", "DE ", "FL ", "HI ", "IA ", "ID ", "IL ", "IN ", "KS ", "KY ", "LA ", "MA ", "MD ", "ME ", "MI ", "MN ", "MO ", "MS ", "MT ", "NC ", "ND ", "NE ", "NH ", "NJ ", "NM ", "NV ", "NY ", "OH ", "OK ", "OR ", "PA ", "PR ", "RI ", "SC ", "SD ", "TN ", "TX ", "UT ", "VA ", "VI ", "VT ", "WI ", "WV ", "WY"]
                  },
                  "zipCode": {
                    "type": "string",
                    "pattern": "^[0-9\\-\\s]*$",
                    "maxLength": 10
                  },
                  "country": {
                    "type": "string",
                    "enum": ["ABW", "AFG", "AGO", "AIA", "ALA", "ALB", "AND", "ANT", "ARE", "ARG", "ARM", "ASM", "ATA", "ATF", "ATG", "AUS", "AUT", "AZE", "BAT", "BDI", "BEL", "BEN", "BFA", "BGD", "BGR", "BHR", "BHS", "BIH", "BLR", "BLZ", "BMU", "BOL", "BRA", "BRB", "BRN", "BTN", "BVT", "BWA", "CAF", "CAN", "CCK", "CHE", "CHL", "CHN", "CIV", "CMR", "COD", "COG", "COK", "COL", "COM", "CPV", "CRI", "CUB", "CXR", "CYM", "CYP", "CZE", "DEU", "DJI", "DMA", "DNK", "DOM", "DZA", "ECU", "EGY", "ERI", "ESH", "ESP", "EST", "ETH", "FIN", "FJI", "FLK", "FRA", "FRO", "FSM", "FXX", "GAB", "GBR", "GEO", "GHA", "GIB", "GIN", "GLP", "GMB", "GNB", "GNQ", "GRC", "GRD", "GRL", "GRN", "GTM", "GUF", "GUM", "GUY", "HKG", "HMD", "HND", "HRV", "HTI", "HUN", "IDN", "IND", "IOT", "IRL", "IRN", "IRQ", "ISL", "ISR", "ITA", "JAM", "JER", "JOR", "JPN", "KAZ", "KEN", "KER", "KGZ", "KHM", "KIR", "KNA", "KOR", "KSV", "KWT", "LAO", "LBN", "LBR", "LBY", "LCA", "LIE", "LKA", "LSO", "LTU", "LUX", "LVA", "MAC", "MAR", "MAT", "MCO", "MDA", "MDG", "MDV", "MEX", "MHL", "MID", "MKD", "MLI", "MLT", "MMR", "MNE", "MNG", "MNP", "MOZ", "MRT", "MSR", "MTQ", "MUS", "MWI", "MYS", "MYT", "NAM", "NCL", "NER", "NFK", "NGA", "NIC", "NIU", "NLD", "NOR", "NPL", "NRU", "NZL", "OIW", "OMN", "PAK", "PAN", "PCN", "PER", "PHL", "PLW", "PNG", "POL", "PRI", "PRK", "PRT", "PRY", "PSE", "PYF", "QAT", "RCR", "REU", "ROM", "RUS", "RWA", "SAU", "SBT", "SDN", "SEN", "SGP", "SGS", "SHN", "SJM", "SLB", "SLE", "SLV", "SMR", "SOM", "SPM", "SRB", "STP", "SUR", "SVK", "SVN", "SWE", "SWZ", "SYC", "SYR", "TCA", "TCD", "TGO", "THA", "TJK", "TKL", "TKM", "TMP", "TON", "TTO", "TUN", "TUR", "TUV", "TWN", "TZA", "UGA", "UKR", "UMI", "URY", "USA", "UZB", "VAT", "VCT", "VEN", "VGB", "VIR", "VNM", "VUT", "WLF", "WSM", "XIM", "YEM", "YUG", "ZAF", "ZAR", "ZMB", "ZWE"]
                  },
                  "county": {
                    "type": "string",
                    "maxLength": 40
                  },
                  "geoLatitute": {
                    "type": "number",
                    "minimum": -90,
                    "maximum": 90
                  },
                  "geoLongitude": {
                    "type": "number",
                    "minimum": -180,
                    "maximum": 180
                  },
                  "addressDescription": {
                    "type": "string",
                    "maxLength": 50
                  }
                },
                "required":[
                  "city",
                  "country"
                ]
              }
            },
            "required": [
              "locationType",
              "address"
            ]
          }
        },
        "emails": {
          "type": "array",
          "minItems":1,
          "items": {
            "type": "object",
            "properties": {
              "emailId": {
                "type": "string",
                "minLength": 1
              },
              "emailType": {
                "type": "string",
                "enum": ["Primary", "Work", "Personal", "Other", "Corporate","Distribution List","Alternate Email"]
              },
              "emailAddress": {
                "type": "string",
                "format": "email",
                "minLength" : 1,
                "maxLength": 255
              }
            },
            "required": [
              "emailAddress",
              "emailType"
            ]
          }
        },
        "preferences": {
          "type": "array",
          "items": {
            "type": "object",
            "properties": {
              "preferenceId": {
                "type": "string",
                "minLength": 1
              },
              "preferenceType": {
                "type": "string",
                "enum": ["Airline Preference", "Air Travel Notes", "Bed Preference", "Car Type Preference", "Class Preference", "Course Name Preference", "Culinary Preference", "Customer Notes", "Dietary Preference", "Dining Preference", "Dining Notes", "Entertainment and Culture Preference", "Florist Preference", "Flower Notes", "Golf Notes", "Golf Preference", "Hotel Preference", "Hotel Notes", "Language Preference", "Meal Preference", "Other Preferences", "Preferred Name", "Response Preference", "Rental Car Notes", "Salutation Preference", "Seat Preference", "Shopping Preference", "Smoking Preference", "Travel Notes", "Wellness Preference"]
              },
              "preferenceValue": {
                "type": "string",
                "minLength": 1,
                "maxLength": 40

              }
            },
            "required": [
              "preferenceType",
              "preferenceValue"
            ]
          }
        },
        "memberships": {
          "type": "array",
          "items": {
            "type": "object",
            "properties": {
              "membershipId": {
                "type": "string",
                "minLength": 1
              },
              "membershipCategory": {
                "type": "string",
                "enum": ["Bank Account Holder", "Car Loyalty Program", "Dining Loyalty Program", "DMA", "Frequent Flyer Program", "Golf Loyalty Program", "Hotel Loyalty Program", "Identifier", "Loyalty Membership", "Primary Membership", "QFF", "Secondary Membership", "Travel Loyalty Program"]
              },
              "referenceName": {
                "type": "string",
                "maxLength": 40
              },
              "referenceNumber": {
                "type": "string",
                "maxLength": 40
              },
              "externalReferenceNumber": {
                "type": "string",
                "maxLength": 255
              },
              "uniqueIdentifier": {
                "type": "string",
                "maxLength": 255
              }
            },
            "required": [
              "membershipCategory"
            ]
          }
        },
        "phones": {
          "type": "array",
          "items": {
            "type": "object",
            "properties": {
              "phoneId": {
                "type": "string",
                "minLength": 1
              },
              "phoneType": {
                "type": "string",
                "enum": ["Assistant", "CardCenter", "Home", "Mobile", "Work"]
              },
              "phoneCountryCode": {
                "type": "string",
                "pattern": "^[0-9+()*#\\-\\s]*$",
                "maxLength": 18
              },
              "phoneAreaCode": {
                "type": "string",
                "pattern": "^[0-9+()*#\\-\\s]*$",
                "maxLength": 18
              },
              "phoneNumber": {
                "type": "string",
                "pattern": "^(?!\\s)[0-9+()*#\\-\\s]*$",
                "minLength": 1,
                "maxLength": 18
              },
              "phoneExtension": {
                "type": "string",
                "pattern": "^[0-9+()*#\\-\\s]*$",
                "maxLength": 18
              },
              "phoneNote": {
                "type": "string",
                "maxLength": 40
              }
            },
            "required": [
              "phoneType",
              "phoneNumber"
            ]
          }
        },
        "faxes": {
          "type": "array",
          "items": {
            "type": "object",
            "properties": {
              "faxId": {
                "type": "string",
                "minLength": 1
              },
              "countryCode": {
                "type": "string",
                "pattern": "^[0-9+()*#\\-\\s]*$",
                "maxLength": 20
              },
              "faxNumber": {
                "type": "string",
                "pattern": "^(?!\\s)[0-9+()*#\\-\\s]*$",
                "minLength": 1,
                "maxLength": 20
              },
              "faxNote": {
                "type": "string",
                "maxLength": 40
              }
            },
            "required": [
              "faxNumber"
            ]
          }
        }
      },
      "required": [
        "firstName",
        "lastName"
      ]
    },
    "verificationMetadata": {
      "type": "object"
    }
  },
  "required": [
    "program",
    "currentPhone",
    "contactMethod",
    "requestList",
    "profile",
    "verificationMetadata"
  ]
}