[{"Subcategory":"Africa/Middle East","GeographicRegion":"all","City":"Africa/Middle East"},
{"Subcategory":"Asia Pacific","GeographicRegion":"all","City":"Asia Pacific"},
{"Subcategory":"Caribbean","GeographicRegion":"all","City":"Caribbean"},
{"Subcategory":"Caribbean/Bahamas/Mexico","GeographicRegion":"all","City":"Caribbean"},
{"Subcategory":"North America","GeographicRegion":"Mexico","City":"Latin America & Cancun"},
{"Subcategory":"Latin America (South/Central America)","GeographicRegion":"all","City":"Latin America"},
{"Subcategory":"Europe","GeographicRegion":"all","City":"Europe"},
{"Subcategory":"Europe","GeographicRegion":"France","City":"Paris  & Europe"},
{"Subcategory":"Europe","GeographicRegion":"United Kingdom","City":"London  & Europe"},
{"Subcategory":"Europe","GeographicRegion":"Italy","City":"Rome & Europe"},
{"Subcategory":"North America","GeographicRegion":"Hawaii","City":"Hawaii"},
{"Subcategory":"North America","GeographicRegion":"District of Columbia","City":"Washington, D.C."},
{"Subcategory":"North America","GeographicRegion":"Nevada","City":"Las Vegas"},
{"Subcategory":"North America ","GeographicRegion":"Washington","City":"Seattle"},
{"Subcategory":"North America","GeographicRegion":"Lousiana","City":"New Orleans"},
{"Subcategory":"North America","GeographicRegion":"Nevada","City":"Las Vegas"},
{"Subcategory":"North America","GeographicRegion":"New York","City":"New York"},
{"Subcategory":"North America","GeographicRegion":"Massachusetts","City":"Boston"},
{"Subcategory":"North America","GeographicRegion":"Illinois","City":"Chicago"},
{"Subcategory":"North America","GeographicRegion":"Texas","City":"Dallas"},
{"Subcategory":"North America","GeographicRegion":"Canada","City":"Canada"},
{"Subcategory":"North America","GeographicRegion":"Quebec","City":"Montreal & Canada"},
{"Subcategory":"North America","GeographicRegion":"Ontario","City":"Toronto & Canada"},
{"Subcategory":"North America","GeographicRegion":"British Columbia","City":"Vancouver & Canada"},
{"Subcategory":"North America","GeographicRegion":"Arizona","City":"Las Vegas"},
{"Subcategory":"North America","GeographicRegion":"Delaware","City":"Philadelphia"},
{"Subcategory":"North America","GeographicRegion":"Georgia","City":"Atlanta"},
{"Subcategory":"North America","GeographicRegion":"New Hampshire","City":"Boston"},
{"Subcategory":"North America","GeographicRegion":"Rhode Island","City":"Boston"},
{"Subcategory":"North America","GeographicRegion":"Texas","City":"Dallas"},
{"Subcategory":"North America","GeographicRegion":"Virgina","City":"Washington, D.C."},
{"Subcategory":"North America","GeographicRegion":"Wisconsin","City":"Milwaukee"},
{"Subcategory":"North America","GeographicRegion":"Washington","City":"Seattle"},
{"Subcategory":"North America","GeographicRegion":"Maine","City":"Boston"},
{"Subcategory":"North America","GeographicRegion":"Vermont","City":"Boston"},
{"Subcategory":"North America","GeographicRegion":"Connecticut","City":"New York"},
{"Subcategory":"North America","GeographicRegion":"California","City":"Los Angeles & San Francisco & Napa/Sonoma"},
{"Subcategory":"North America","GeographicRegion":"Florida","City":"Miami & Orlando"}]
