[
  {
    "name": "Africa",
    "isRegion": 1,
    "group": "r1",
    "isDisplayForDining": 0,
    "isDisplayForHotel": 1,
    "isDisplayForOther": 0,
    "isValid": 1
  },
  {
    "name": "Asia Pacific",
    "isRegion": 1,
    "group": "r2",
    "isDisplayForDining": 1,
    "isDisplayForHotel": 1,
    "isDisplayForOther": 0,
    "isValid": 1
  },
  {
    "name": "Atlanta",
    "isRegion": 0,
    "group": "r2",
    "isDisplayForDining": 1,
    "isDisplayForHotel": 0,
    "isDisplayForOther": 0,
    "isValid": 1
  },
  {
    "name": "Boston",
    "isRegion": 0,
    "group": "r2",
    "isDisplayForDining": 1,
    "isDisplayForHotel": 0,
    "isDisplayForOther": 1,
    "isValid": 1
  },
  {
    "name": "Cancun",
    "isRegion": 0,
    "group": "r2",
    "isDisplayForDining": 1,
    "isDisplayForHotel": 0,
    "isDisplayForOther": 0,
    "isValid": 1
  },
  {
    "name": "Caribbean",
    "isRegion": 1,
    "group": "r3",
    "isDisplayForDining": 0,
    "isDisplayForHotel": 1,
    "isDisplayForOther": 0,
    "isValid": 1
  },
  {
    "name": "Chicago",
    "isRegion": 0,
    "group": "r3",
    "isDisplayForDining": 1,
    "isDisplayForHotel": 0,
    "isDisplayForOther": 1,
    "isValid": 1
  },
  {
    "name": "Cleveland",
    "isRegion": 0,
    "group": "r3",
    "isDisplayForDining": 1,
    "isDisplayForHotel": 0,
    "isDisplayForOther": 0,
    "isValid": 1
  },
  {
    "name": "Dallas",
    "isRegion": 0,
    "group": "r3",
    "isDisplayForDining": 1,
    "isDisplayForHotel": 0,
    "isDisplayForOther": 1,
    "isValid": 1
  },
  {
    "name": "Europe",
    "isRegion": 1,
    "group": "r4",
    "isDisplayForDining": 0,
    "isDisplayForHotel": 1,
    "isDisplayForOther": 0,
    "isValid": 1
  },
  {
    "name": "Hawaii",
    "isRegion": 0,
    "group": "r4",
    "isDisplayForDining": 1,
    "isDisplayForHotel": 0,
    "isDisplayForOther": 0,
    "isValid": 1
  },
  {
    "name": "Las Vegas",
    "isRegion": 0,
    "group": "r4",
    "isDisplayForDining": 1,
    "isDisplayForHotel": 0,
    "isDisplayForOther": 1,
    "isValid": 1
  },
  {
    "name": "Latin America",
    "isRegion": 1,
    "group": "r5",
    "isDisplayForDining": 0,
    "isDisplayForHotel": 1,
    "isDisplayForOther": 0,
    "isValid": 1
  },
  {
    "name": "London",
    "isRegion": 0,
    "group": "r5",
    "isDisplayForDining": 1,
    "isDisplayForHotel": 0,
    "isDisplayForOther": 1,
    "isValid": 1
  },
  {
    "name": "Los Angeles",
    "isRegion": 0,
    "group": "r5",
    "isDisplayForDining": 1,
    "isDisplayForHotel": 0,
    "isDisplayForOther": 1,
    "isValid": 1
  },
  {
    "name": "Miami",
    "isRegion": 0,
    "group": "r5",
    "isDisplayForDining": 1,
    "isDisplayForHotel": 0,
    "isDisplayForOther": 1,
    "isValid": 1
  },
  {
    "name": "Middle East",
    "isRegion": 0,
    "group": "r5",
    "isDisplayForDining": 0,
    "isDisplayForHotel": 0,
    "isDisplayForOther": 0,
    "isValid": 0
  },
  {
    "name": "Milwaukee",
    "isRegion": 0,
    "group": "r5",
    "isDisplayForDining": 1,
    "isDisplayForHotel": 0,
    "isDisplayForOther": 0,
    "isValid": 1
  },
  {
    "name": "Montreal",
    "isRegion": 0,
    "group": "r5",
    "isDisplayForDining": 1,
    "isDisplayForHotel": 0,
    "isDisplayForOther": 1,
    "isValid": 1
  },
  {
    "name": "Napa Valley",
    "isRegion": 0,
    "group": "r5",
    "isDisplayForDining": 1,
    "isDisplayForHotel": 0,
    "isDisplayForOther": 0,
    "isValid": 1
  },
  {
    "name": "New Orleans",
    "isRegion": 0,
    "group": "r5",
    "isDisplayForDining": 1,
    "isDisplayForHotel": 0,
    "isDisplayForOther": 0,
    "isValid": 1
  },
  {
    "name": "New York",
    "isRegion": 0,
    "group": "r5",
    "isDisplayForDining": 1,
    "isDisplayForHotel": 0,
    "isDisplayForOther": 1,
    "isValid": 1
  },
  {
    "name": "Orlando",
    "isRegion": 0,
    "group": "r5",
    "isDisplayForDining": 1,
    "isDisplayForHotel": 0,
    "isDisplayForOther": 1,
    "isValid": 1
  },
  {
    "name": "Paris",
    "isRegion": 0,
    "group": "r5",
    "isDisplayForDining": 1,
    "isDisplayForHotel": 0,
    "isDisplayForOther": 1,
    "isValid": 1
  },
  {
    "name": "Philadelphia",
    "isRegion": 0,
    "group": "r5",
    "isDisplayForDining": 1,
    "isDisplayForHotel": 0,
    "isDisplayForOther": 0,
    "isValid": 1
  },
  {
    "name": "Rome",
    "isRegion": 0,
    "group": "r5",
    "isDisplayForDining": 1,
    "isDisplayForHotel": 0,
    "isDisplayForOther": 1,
    "isValid": 1
  },
  {
    "name": "San Francisco",
    "isRegion": 0,
    "group": "r5",
    "isDisplayForDining": 1,
    "isDisplayForHotel": 0,
    "isDisplayForOther": 1,
    "isValid": 1
  },
  {
    "name": "Seattle",
    "isRegion": 0,
    "group": "r5",
    "isDisplayForDining": 1,
    "isDisplayForHotel": 0,
    "isDisplayForOther": 1,
    "isValid": 1
  },
  {
    "name": "Toronto",
    "isRegion": 0,
    "group": "r5",
    "isDisplayForDining": 1,
    "isDisplayForHotel": 0,
    "isDisplayForOther": 1,
    "isValid": 1
  },
  {
    "name": "Vancouver",
    "isRegion": 0,
    "group": "r5",
    "isDisplayForDining": 1,
    "isDisplayForHotel": 0,
    "isDisplayForOther": 1,
    "isValid": 1
  },
  {
    "name": "Wash DC",
    "isRegion": 0,
    "group": "r5",
    "isDisplayForDining": 1,
    "isDisplayForHotel": 0,
    "isDisplayForOther": 1,
    "isValid": 1
  }
]
